…
sd <- train %>%
  select_if(is.numeric) %>%
  summarise_all(~sd(.x, na.rm = TRUE)) %>%
  pivot_longer(cols = everything(), names_to = "columns", values_to = "standard deviation")


mean %>%
  left_join(min, by = "columns") %>%
  left_join(max, by = "columns") %>%
  left_join(variance, by = "columns") %>%
  left_join(sd, by = "columns")
```

    ## # A tibble: 38 × 6
    ##    columns          mean   min    max    variance `standard deviation`
    ##    <chr>           <dbl> <int>  <int>       <dbl>                <dbl>
    ##  1 Id             730.       1   1460   177755                  422.  
    ##  2 MSSubClass      56.9     20    190     1789.                  42.3 
    ##  3 LotFrontage     70.0     21    313      590.                  24.3 
    ##  4 LotArea      10517.    1300 215245 99625650.                9981.  
    ##  5 OverallQual      6.10     1     10        1.91                 1.38
    ##  6 OverallCond      5.58     1      9        1.24                 1.11
    ##  7 YearBuilt     1971.    1872   2010      912.                  30.2 
    ##  8 YearRemodAdd  1985.    1950   2010      426.                  20.6 
    ##  9 MasVnrArea     104.       0   1600    32785.                 181.  
    ## 10 BsmtFinSF1     444.       0   5644   208025.                 456.  
    ## # ℹ 28 more rows
…
